<svg xmlns="http://www.w3.org/2000/svg" width="230" height="227.416" viewBox="0 0 230 227.416">
  <g id="Grupo_21529" data-name="Grupo 21529" transform="translate(-138 -1965.512)">
    <g id="Grupo_20072" data-name="Grupo 20072" transform="translate(0 -257.072)">
      <path id="Caminho_25821" data-name="Caminho 25821" d="M589.772,372.59l.041-.057c.02.017.037.036.057.053,15.156-.7,29.741-6.1,43.029-13.643-.231-.134.952-.636.951-.545,3.383-1.955,6.681-4.043,9.879-6.227a231.994,231.994,0,0,0,52.443-49.831c13.641-17.672,29.082-40.869,23.434-64.382-2.668-11.1-10.289-19.892-18.569-27.366-9.79-8.837-20.159-17.081-30.261-25.558-9.7-8.139-19.231-16.584-29.544-23.952-9.252-6.61-19.487-12.453-30.72-14.82a51.716,51.716,0,0,0-32.706,4.045c-10.565,4.894-19.69,12.5-28.161,20.372-16.872,15.678-33.619,32.828-44.1,53.585-1.573,3.115-4.1,7.041-5.346,10.3-7.312,14.781-10.142,28.334-9.234,43.723,1.313,22.255,11.784,43.065,26.571,59.439,15.37,17.02,36.338,31.074,59.413,34.286C577.765,372.124,586.79,372.724,589.772,372.59Z" transform="translate(-352.805 2077.391)" fill="#956cc0"/>
      <g id="iconfinder_-_Hamburger-Menu-More-Navigation-List_3844472" transform="translate(209 2301.072)">
        <circle id="XMLID_303_" cx="3" cy="3" r="3" transform="translate(4 5)" fill="none" stroke="#fff" stroke-linecap="round" stroke-linejoin="round" stroke-miterlimit="10" stroke-width="6"/>
        <circle id="XMLID_305_" cx="3" cy="3" r="3" transform="translate(4 35)" fill="none" stroke="#fff" stroke-linecap="round" stroke-linejoin="round" stroke-miterlimit="10" stroke-width="6"/>
        <circle id="XMLID_304_" cx="3" cy="3" r="3" transform="translate(4 65)" fill="none" stroke="#fff" stroke-linecap="round" stroke-linejoin="round" stroke-miterlimit="10" stroke-width="6"/>
        <line id="XMLID_29_" x2="54" transform="translate(22 8)" fill="none" stroke="#fff" stroke-linecap="round" stroke-linejoin="round" stroke-miterlimit="10" stroke-width="6"/>
        <line id="XMLID_30_" x2="54" transform="translate(22 38)" fill="none" stroke="#fff" stroke-linecap="round" stroke-linejoin="round" stroke-miterlimit="10" stroke-width="6"/>
        <line id="XMLID_31_" x2="54" transform="translate(22 68)" fill="none" stroke="#fff" stroke-linecap="round" stroke-linejoin="round" stroke-miterlimit="10" stroke-width="6"/>
      </g>
    </g>
  </g>
</svg>
