<svg xmlns="http://www.w3.org/2000/svg" width="70.918" height="70.145" viewBox="0 0 70.918 70.145">
  <g id="Group_19962" data-name="Group 19962" transform="translate(-251.361 -1612.593)">
    <g id="Group_13172" data-name="Group 13172" transform="translate(-462.639 -5205)">
      <path id="Path_23374" data-name="Path 23374" d="M518.127,215.218a.228.228,0,0,1,.267-.182.169.169,0,0,1,.168.172.248.248,0,0,1-.01.057,21.809,21.809,0,0,0,2.778.051l.013-.017.018.016a29.972,29.972,0,0,0,13.269-4.207c-.071-.041-.143-.107-.265-.193.162-.079.237-.125.319-.152a.18.18,0,0,1,.224.1.166.166,0,0,1,.015.076c1.043-.6,2.06-1.247,3.046-1.92a71.538,71.538,0,0,0,16.172-15.366c4.207-5.449,8.968-12.6,7.226-19.853-.823-3.424-3.173-6.134-5.726-8.439-3.019-2.725-6.216-5.267-9.332-7.881-2.991-2.51-5.93-5.114-9.11-7.386a25.814,25.814,0,0,0-9.473-4.57,15.947,15.947,0,0,0-10.085,1.247,34.323,34.323,0,0,0-8.684,6.282c-5.2,4.835-10.367,10.123-13.6,16.524a31.725,31.725,0,0,0-1.307,2.949,24.46,24.46,0,0,0-3.189,13.709c.405,6.863,3.634,13.28,8.194,18.329,4.74,5.248,11.206,9.582,18.321,10.573.251.035.5.064.75.09C518.128,215.224,518.127,215.221,518.127,215.218Z" transform="translate(223.182 6672.4)" fill="#006853"/>
      <path id="path6391" d="M22.251,4A2.288,2.288,0,0,0,20,6.319v13.7H6.3a2.288,2.288,0,1,0,0,4.576H20v13.7a2.288,2.288,0,1,0,4.576,0v-13.7h13.7a2.288,2.288,0,1,0,0-4.576h-13.7V6.319A2.288,2.288,0,0,0,22.251,4Z" transform="translate(725.381 6832.27)" fill="#fff" fill-rule="evenodd"/>
    </g>
  </g>
</svg>
