<svg xmlns="http://www.w3.org/2000/svg" width="230" height="227.416" viewBox="0 0 230 227.416">
  <g id="Grupo_21543" data-name="Grupo 21543" transform="translate(-138 -9583)">
    <g id="Grupo_20722" data-name="Grupo 20722">
      <g id="Grupo_20703" data-name="Grupo 20703" transform="translate(0 4608)">
        <g id="Grupo_19971" data-name="Grupo 19971" transform="translate(0 2752.416)">
          <path id="Caminho_25821" data-name="Caminho 25821" d="M589.772,372.59l.041-.057c.02.017.037.036.057.053,15.156-.7,29.741-6.1,43.029-13.643-.231-.134.952-.636.951-.545,3.383-1.955,6.681-4.043,9.879-6.227a231.994,231.994,0,0,0,52.443-49.831c13.641-17.672,29.082-40.869,23.434-64.382-2.668-11.1-10.289-19.892-18.569-27.366-9.79-8.837-20.159-17.081-30.261-25.558-9.7-8.139-19.231-16.584-29.544-23.952-9.252-6.61-19.487-12.453-30.72-14.82a51.716,51.716,0,0,0-32.706,4.045c-10.565,4.894-19.69,12.5-28.161,20.372-16.872,15.678-33.619,32.828-44.1,53.585-1.573,3.115-4.1,7.041-5.346,10.3-7.312,14.781-10.142,28.334-9.234,43.723,1.313,22.255,11.784,43.065,26.571,59.439,15.37,17.02,36.338,31.074,59.413,34.286C577.765,372.124,586.79,372.724,589.772,372.59Z" transform="translate(-352.805 2077.391)" fill="#956cc0"/>
        </g>
      </g>
      <g id="Grupo_20721" data-name="Grupo 20721" transform="translate(142.388 9574.73)">
        <g id="Grupo_20705" data-name="Grupo 20705" transform="translate(59.927 149.431)">
          <path id="Caminho_26466" data-name="Caminho 26466" d="M146.5,230.525c-4.344,0-13.452-2.166-19.81-6.113-6.358,3.947-15.465,6.113-19.81,6.113-12.657,0-23.782-19.037-29.287-30.384a2.644,2.644,0,0,1,4.758-2.308c8.324,17.16,17.494,27.4,24.529,27.4,3.423,0,12.71-2.111,18.254-6.146a2.643,2.643,0,0,1,3.112,0c5.543,4.034,14.83,6.146,18.254,6.146,7.168,0,16.481-10.542,24.912-28.2a2.644,2.644,0,0,1,4.772,2.279C170.616,210.971,159.36,230.525,146.5,230.525Z" transform="translate(-77.325 -195.531)" fill="#fff"/>
        </g>
        <g id="Grupo_20706" data-name="Grupo 20706" transform="translate(47.087 72.069)">
          <path id="Caminho_26467" data-name="Caminho 26467" d="M177.925,131.09a2.648,2.648,0,0,1-2.579-3.24,56.093,56.093,0,0,0,1.671-11.862c0-17.756-14.05-32.2-31.32-32.2a30.96,30.96,0,0,0-23.579,11.055,2.644,2.644,0,0,1-2.015.933h0a2.644,2.644,0,0,1-2.015-.933A30.959,30.959,0,0,0,94.508,83.787c-17.27,0-31.32,14.445-31.32,32.2a55.055,55.055,0,0,0,1.573,11.434A2.644,2.644,0,1,1,59.6,128.59a59.3,59.3,0,0,1-1.7-12.6c0-20.672,16.422-37.49,36.608-37.49A36.131,36.131,0,0,1,120.1,89.228,36.132,36.132,0,0,1,145.7,78.5c20.185,0,36.608,16.818,36.608,37.49a60.337,60.337,0,0,1-1.807,13.051A2.645,2.645,0,0,1,177.925,131.09Z" transform="translate(-57.9 -78.499)" fill="#fff"/>
        </g>
        <g id="Grupo_20707" data-name="Grupo 20707" transform="translate(105.854 59.53)">
          <path id="Caminho_26468" data-name="Caminho 26468" d="M151.284,89.9a2.645,2.645,0,0,1-2.456-1.662c-2.721-6.8-2.7-12.781.06-17.772,4.79-8.66,16.072-10.8,16.55-10.888a2.644,2.644,0,0,1,.951,5.2c-.132.024-9.337,1.819-12.885,8.268-1.943,3.531-1.864,7.981.235,13.227a2.646,2.646,0,0,1-2.454,3.627Z" transform="translate(-146.803 -59.53)" fill="#fff"/>
        </g>
        <g id="Grupo_20708" data-name="Grupo 20708" transform="translate(58.091 83.072)">
          <path id="Caminho_26469" data-name="Caminho 26469" d="M77.191,125.509a2.644,2.644,0,0,1-2.644-2.644,27.752,27.752,0,0,1,27.721-27.721,2.644,2.644,0,1,1,0,5.288,22.458,22.458,0,0,0-22.433,22.433A2.644,2.644,0,0,1,77.191,125.509Z" transform="translate(-74.547 -95.144)" fill="#fff"/>
        </g>
        <g id="Grupo_20709" data-name="Grupo 20709" transform="translate(26 120.346)">
          <path id="Caminho_26470" data-name="Caminho 26470" d="M192.579,185.9H28.644A2.644,2.644,0,0,1,26,183.26V154.175a2.644,2.644,0,0,1,2.644-2.644H192.579a2.644,2.644,0,0,1,2.644,2.644V183.26A2.644,2.644,0,0,1,192.579,185.9ZM31.288,180.616H189.935v-23.8H31.288Z" transform="translate(-26 -151.531)" fill="#fff"/>
        </g>
        <g id="Grupo_20710" data-name="Grupo 20710" transform="translate(41.865 122.99)">
          <path id="Caminho_26471" data-name="Caminho 26471" d="M52.644,171.4A2.644,2.644,0,0,1,50,168.752V158.175a2.644,2.644,0,1,1,5.288,0v10.576A2.644,2.644,0,0,1,52.644,171.4Z" transform="translate(-50 -155.531)" fill="#fff"/>
        </g>
        <g id="Grupo_20711" data-name="Grupo 20711" transform="translate(55.085 122.99)">
          <path id="Caminho_26472" data-name="Caminho 26472" d="M72.644,176.684A2.644,2.644,0,0,1,70,174.04V158.175a2.644,2.644,0,0,1,5.288,0V174.04A2.644,2.644,0,0,1,72.644,176.684Z" transform="translate(-70 -155.531)" fill="#fff"/>
        </g>
        <g id="Grupo_20712" data-name="Grupo 20712" transform="translate(68.306 122.99)">
          <path id="Caminho_26473" data-name="Caminho 26473" d="M92.644,171.4A2.644,2.644,0,0,1,90,168.752V158.175a2.644,2.644,0,0,1,5.288,0v10.576A2.644,2.644,0,0,1,92.644,171.4Z" transform="translate(-90 -155.531)" fill="#fff"/>
        </g>
        <g id="Grupo_20713" data-name="Grupo 20713" transform="translate(81.527 122.99)">
          <path id="Caminho_26474" data-name="Caminho 26474" d="M112.644,176.684A2.644,2.644,0,0,1,110,174.04V158.175a2.644,2.644,0,1,1,5.288,0V174.04A2.644,2.644,0,0,1,112.644,176.684Z" transform="translate(-110 -155.531)" fill="#fff"/>
        </g>
        <g id="Grupo_20714" data-name="Grupo 20714" transform="translate(94.747 122.99)">
          <path id="Caminho_26475" data-name="Caminho 26475" d="M132.644,171.4A2.644,2.644,0,0,1,130,168.752V158.175a2.644,2.644,0,1,1,5.288,0v10.576A2.644,2.644,0,0,1,132.644,171.4Z" transform="translate(-130 -155.531)" fill="#fff"/>
        </g>
        <g id="Grupo_20715" data-name="Grupo 20715" transform="translate(107.968 122.99)">
          <path id="Caminho_26476" data-name="Caminho 26476" d="M152.644,176.684A2.644,2.644,0,0,1,150,174.04V158.175a2.644,2.644,0,0,1,5.288,0V174.04A2.644,2.644,0,0,1,152.644,176.684Z" transform="translate(-150 -155.531)" fill="#fff"/>
        </g>
        <g id="Grupo_20716" data-name="Grupo 20716" transform="translate(121.188 122.99)">
          <path id="Caminho_26477" data-name="Caminho 26477" d="M172.644,171.4A2.644,2.644,0,0,1,170,168.752V158.175a2.644,2.644,0,0,1,5.288,0v10.576A2.644,2.644,0,0,1,172.644,171.4Z" transform="translate(-170 -155.531)" fill="#fff"/>
        </g>
        <g id="Grupo_20717" data-name="Grupo 20717" transform="translate(134.409 122.99)">
          <path id="Caminho_26478" data-name="Caminho 26478" d="M192.644,176.684A2.644,2.644,0,0,1,190,174.04V158.175a2.644,2.644,0,0,1,5.288,0V174.04A2.644,2.644,0,0,1,192.644,176.684Z" transform="translate(-190 -155.531)" fill="#fff"/>
        </g>
        <g id="Grupo_20718" data-name="Grupo 20718" transform="translate(147.629 122.99)">
          <path id="Caminho_26479" data-name="Caminho 26479" d="M212.644,171.4A2.644,2.644,0,0,1,210,168.752V158.175a2.644,2.644,0,1,1,5.288,0v10.576A2.644,2.644,0,0,1,212.644,171.4Z" transform="translate(-210 -155.531)" fill="#fff"/>
        </g>
        <g id="Grupo_20719" data-name="Grupo 20719" transform="translate(174.071 122.99)">
          <path id="Caminho_26480" data-name="Caminho 26480" d="M252.644,171.4A2.644,2.644,0,0,1,250,168.752V158.175a2.644,2.644,0,0,1,5.288,0v10.576A2.644,2.644,0,0,1,252.644,171.4Z" transform="translate(-250 -155.531)" fill="#fff"/>
        </g>
        <g id="Grupo_20720" data-name="Grupo 20720" transform="translate(160.85 122.99)">
          <path id="Caminho_26481" data-name="Caminho 26481" d="M232.644,176.684A2.644,2.644,0,0,1,230,174.04V158.175a2.644,2.644,0,1,1,5.288,0V174.04A2.644,2.644,0,0,1,232.644,176.684Z" transform="translate(-230 -155.531)" fill="#fff"/>
        </g>
      </g>
    </g>
  </g>
</svg>
