<svg xmlns="http://www.w3.org/2000/svg" width="230" height="227.416" viewBox="0 0 230 227.416">
  <g id="Grupo_21545" data-name="Grupo 21545" transform="translate(-912 -9583)">
    <g id="Grupo_20724" data-name="Grupo 20724">
      <g id="Grupo_20702" data-name="Grupo 20702" transform="translate(0 4608)">
        <g id="Grupo_20074" data-name="Grupo 20074" transform="translate(774 2752.416)">
          <path id="Caminho_25821" data-name="Caminho 25821" d="M589.772,372.59l.041-.057c.02.017.037.036.057.053,15.156-.7,29.741-6.1,43.029-13.643-.231-.134.952-.636.951-.545,3.383-1.955,6.681-4.043,9.879-6.227a231.994,231.994,0,0,0,52.443-49.831c13.641-17.672,29.082-40.869,23.434-64.382-2.668-11.1-10.289-19.892-18.569-27.366-9.79-8.837-20.159-17.081-30.261-25.558-9.7-8.139-19.231-16.584-29.544-23.952-9.252-6.61-19.487-12.453-30.72-14.82a51.716,51.716,0,0,0-32.706,4.045c-10.565,4.894-19.69,12.5-28.161,20.372-16.872,15.678-33.619,32.828-44.1,53.585-1.573,3.115-4.1,7.041-5.346,10.3-7.312,14.781-10.142,28.334-9.234,43.723,1.313,22.255,11.784,43.065,26.571,59.439,15.37,17.02,36.338,31.074,59.413,34.286C577.765,372.124,586.79,372.724,589.772,372.59Z" transform="translate(-352.805 2077.391)" fill="#956cc0"/>
        </g>
      </g>
      <g id="Grupo_20723" data-name="Grupo 20723" transform="translate(949.238 9637.701)">
        <path id="Caminho_26482" data-name="Caminho 26482" d="M264.8,293.242a4.909,4.909,0,1,1,4.91-4.909A4.916,4.916,0,0,1,264.8,293.242Zm0-6.9a1.992,1.992,0,1,0,1.991,1.992A1.995,1.995,0,0,0,264.8,286.341Z" transform="translate(-232.732 -253.887)" fill="#fff"/>
        <path id="Caminho_26483" data-name="Caminho 26483" d="M173.332,165.754h0a1.459,1.459,0,0,1-.358-2.032l13.914-19.871a1.459,1.459,0,0,1,2.032-.358h0a1.459,1.459,0,0,1,.358,2.032L175.363,165.4A1.459,1.459,0,0,1,173.332,165.754Z" transform="translate(-154.359 -127.858)" fill="#fff"/>
        <path id="Caminho_26484" data-name="Caminho 26484" d="M41.549,47.878a25.774,25.774,0,1,1,6.33-35.9A25.8,25.8,0,0,1,41.549,47.878ZM13.656,8.043a22.856,22.856,0,1,0,31.833,5.613A22.882,22.882,0,0,0,13.656,8.043Z" transform="translate(0 0)" fill="#fff"/>
        <path id="Caminho_26485" data-name="Caminho 26485" d="M159.839,141.219a4.909,4.909,0,1,1,4.909-4.909A4.915,4.915,0,0,1,159.839,141.219Zm0-6.9a1.992,1.992,0,1,0,1.992,1.992A1.994,1.994,0,0,0,159.839,134.318Z" transform="translate(-138.376 -117.225)" fill="#fff"/>
      </g>
      <g id="layer1" transform="translate(993.77 9628.409)">
        <g id="rect17299" transform="translate(8 46.786)">
          <path id="Caminho_26486" data-name="Caminho 26486" d="M46.495,99.811H41.966C23.235,99.811,8,82.543,8,61.317V49.995C8,28.768,23.235,11.5,41.966,11.5h4.529c18.731,0,33.966,17.268,33.966,38.495V61.317C80.461,82.543,65.226,99.811,46.495,99.811ZM41.966,16.029c-16.231,0-29.437,15.235-29.437,33.966V61.317c0,18.731,13.206,33.966,29.437,33.966h4.529c16.231,0,29.437-15.235,29.437-33.966V49.995c0-18.731-13.206-33.966-29.437-33.966Z" transform="translate(-8 -11.5)" fill="#fff"/>
        </g>
        <g id="path17301" transform="translate(8 1.5)">
          <path id="Caminho_26487" data-name="Caminho 26487" d="M27.873,53.548a2.268,2.268,0,0,1-2.228-1.861c-.362-2.02-1.259-5.394-2.119-6.58-1.757-2.423-7.314-5.761-9.307-6.838a2.264,2.264,0,0,1,.9-4.248c.29-.018,7.065-.553,10.606.023a23.09,23.09,0,0,1,3.1.8c-1.44-3.265-3.446-7.409-5.235-9.66C19.784,20.406,9.11,13.219,9,13.146a2.263,2.263,0,0,1,1.454-4.135c.607.05,15.013,1.3,21.186,5.367,2.138,1.413,4.316,4.32,5.91,6.78,1.54-3.619,3.9-8.6,6.2-11.349,2.858-3.4,9.864-7.54,10.656-8A2.264,2.264,0,0,1,57.636,4.65c-.041.1-4.085,9.61-4.882,14.483a32.73,32.73,0,0,0-.19,5.131,18.683,18.683,0,0,1,4.85-2.663c4.375-1.318,12.622-.2,13.546-.072a2.267,2.267,0,0,1,.906,4.153c-.091.054-8.7,5.552-11.906,9.361,2.763-.711,6.073-1.331,8.473-1.01,4.153.553,10.38,4.9,11.073,5.4a2.267,2.267,0,0,1-1.078,4.1c-2.314.231-8.962,1.11-11.947,2.341a40.108,40.108,0,0,0-6.988,4.669,2.265,2.265,0,0,1-2.849-3.523c.512-.417,5.1-4.094,8.111-5.335a36.615,36.615,0,0,1,6.834-1.762,13.582,13.582,0,0,0-3.759-1.4c-2.966-.385-9.32,1.581-11.5,2.382a2.269,2.269,0,0,1-2.9-2.926,24.949,24.949,0,0,1,2.88-5.629,45.441,45.441,0,0,1,7.808-6.838,19.2,19.2,0,0,0-5.4.43c-1.753.525-5.041,3.057-6.7,4.524a2.266,2.266,0,0,1-3.763-1.513c-.023-.285-.548-7.024.023-10.548a55.763,55.763,0,0,1,2.568-8.84,22.311,22.311,0,0,0-3.628,3.157c-2.744,3.27-6.1,11.458-7.16,14.334a2.264,2.264,0,0,1-1.975,1.476,2.309,2.309,0,0,1-2.156-1.2c-1.463-2.781-4.606-7.726-6.789-9.166-2.255-1.49-6.3-2.6-10.2-3.365a53.624,53.624,0,0,1,8.184,7.563c3.673,4.61,7.722,15.167,7.894,15.611a2.262,2.262,0,0,1-2.994,2.894A43.164,43.164,0,0,0,25,38.512a19,19,0,0,0-2.233-.186,21.206,21.206,0,0,1,4.429,4.121c1.8,2.491,2.8,7.835,2.912,8.437a2.264,2.264,0,0,1-1.83,2.627A2.052,2.052,0,0,1,27.873,53.548Z" transform="translate(-8 -1.5)" fill="#fff"/>
        </g>
        <g id="path17303" transform="translate(8.613 92.786)">
          <rect id="Retângulo_7652" data-name="Retângulo 7652" width="4.53" height="52.863" transform="matrix(0.728, -0.685, 0.685, 0.728, 0, 3.105)" fill="#fff"/>
        </g>
        <g id="path17305" transform="translate(8.661 74.622)">
          <rect id="Retângulo_7653" data-name="Retângulo 7653" width="4.528" height="73.655" transform="matrix(0.707, -0.707, 0.707, 0.707, 0, 3.202)" fill="#fff"/>
        </g>
        <g id="path17307" transform="translate(15.487 61.003)">
          <rect id="Retângulo_7654" data-name="Retângulo 7654" width="4.529" height="78.475" transform="matrix(0.693, -0.721, 0.721, 0.693, 0, 3.267)" fill="#fff"/>
        </g>
        <g id="path17309" transform="translate(26.814 51.941)">
          <rect id="Retângulo_7655" data-name="Retângulo 7655" width="4.529" height="68.871" transform="translate(0 3.277) rotate(-46.334)" fill="#fff"/>
        </g>
        <g id="path17311" transform="translate(42.627 47.45)">
          <rect id="Retângulo_7656" data-name="Retângulo 7656" width="4.528" height="48.037" transform="translate(0 3.202) rotate(-45.002)" fill="#fff"/>
        </g>
        <g id="path17313" transform="translate(43.913 95.05)">
          <rect id="Retângulo_7657" data-name="Retângulo 7657" width="47.619" height="4.53" transform="translate(0 34.679) rotate(-46.74)" fill="#fff"/>
        </g>
        <g id="path17315" transform="translate(24.474 74.66)">
          <rect id="Retângulo_7658" data-name="Retângulo 7658" width="72.072" height="4.529" transform="translate(0 52.076) rotate(-46.266)" fill="#fff"/>
        </g>
        <g id="path17317" transform="translate(13.233 60.993)">
          <rect id="Retângulo_7659" data-name="Retângulo 7659" width="78.475" height="4.529" transform="translate(0 54.367) rotate(-43.852)" fill="#fff"/>
        </g>
        <g id="path17319" transform="translate(8.662 51.978)">
          <rect id="Retângulo_7660" data-name="Retângulo 7660" width="70.453" height="4.528" transform="translate(0 49.818) rotate(-45)" fill="#fff"/>
        </g>
        <g id="path17321" transform="translate(8.661 47.45)">
          <rect id="Retângulo_7661" data-name="Retângulo 7661" width="48.035" height="4.528" transform="translate(0 33.966) rotate(-45)" fill="#fff"/>
        </g>
      </g>
    </g>
  </g>
</svg>
